%time,field.header.seq,field.header.stamp,field.header.frame_id,field.updateRate_hz,field.slaveAddr,field.status0,field.status1,field.pitchAngle,field.rollAngle,field.accPitch,field.accRoll,field.gyroYaw,field.heightValue,field.accZ,field.gas,field.compassValue,field.batteryVoltage,field.receiverLevel,field.gyroCompass,field.engineFront,field.engineBack,field.engineLeft,field.engineRight,field.onesix,field.oneseven,field.oneeight,field.onenine,field.servo,field.hovergas,field.current,field.capacity_mAh,field.heightSetpoint,field.twofive,field.twosix,field.compassSetpoint,field.i2c_error,field.bl_limit,field.GPS_Pitch,field.GPS_Roll
1339714066012465508,4347,1339714066012465508,mikrokopter,0.0,160,15,0,17,12,16,12,4,105,-12,644,155,148,197,150,166,146,150,139,0,0,0,0,496,0,646,1169,0,0,0,154,0,255,0,0
1339714066132044883,4348,1339714066132044883,mikrokopter,0.0,160,15,0,11,11,12,11,5,105,-39,656,138,148,200,149,169,159,162,153,0,0,0,0,500,0,652,1170,0,0,0,154,0,255,0,0
1339714066291931741,4349,1339714066291931741,mikrokopter,0.0,160,15,0,9,7,16,14,6,103,-4,656,163,148,196,149,151,159,161,158,0,0,0,0,502,0,654,1172,0,0,0,154,0,255,0,0
1339714066331859380,4350,1339714066331859380,mikrokopter,0.0,160,15,0,8,5,16,4,4,104,-4,660,139,148,197,148,157,161,159,165,0,0,0,0,502,0,654,1174,0,0,0,154,0,255,0,0
1339714066451399438,4351,1339714066451399438,mikrokopter,0.0,160,15,0,10,4,17,9,10,104,-3,668,131,147,199,147,172,161,162,155,0,0,0,0,501,0,663,1176,0,0,0,154,0,255,0,0
1339714066551661860,4352,1339714066551661860,mikrokopter,0.0,160,15,0,10,4,22,10,8,102,-39,668,156,147,205,147,165,152,150,163,0,0,0,0,500,0,675,1178,0,0,0,154,0,255,0,0
1339714066652217319,4353,1339714066652217319,mikrokopter,0.0,160,15,0,8,6,19,11,11,103,-22,668,146,147,197,148,179,159,166,136,0,0,0,0,503,0,689,1180,0,0,0,154,0,255,0,0
1339714066752684851,4354,1339714066752684851,mikrokopter,0.0,160,15,0,7,7,21,11,11,103,-13,668,134,147,198,147,174,159,163,154,0,0,0,0,503,0,702,1181,0,0,0,154,0,255,0,0
1339714066871674161,4355,1339714066871674161,mikrokopter,0.0,160,15,0,4,9,21,14,13,104,-11,672,144,147,199,147,167,157,165,158,0,0,0,0,505,0,701,1183,0,0,0,154,0,255,0,0
1339714066971993430,4356,1339714066971993430,mikrokopter,0.0,160,15,0,-1,8,23,10,11,104,-1,672,162,147,205,147,167,154,158,147,0,0,0,0,509,0,702,1185,0,0,0,154,0,255,0,0
1339714067072288604,4357,1339714067072288604,mikrokopter,0.0,160,15,0,-7,5,21,13,16,102,-7,672,160,147,197,149,171,147,171,153,0,0,0,0,513,0,708,1187,0,0,0,154,0,255,0,0
1339714067171555892,4358,1339714067171555892,mikrokopter,0.0,160,15,0,-9,2,18,9,12,102,-1,672,156,147,199,150,164,148,166,156,0,0,0,0,515,0,714,1189,0,0,0,154,0,255,0,0
1339714067292268634,4359,1339714067292268634,mikrokopter,0.0,160,15,0,-7,0,21,12,9,104,-12,672,152,147,195,151,168,143,164,155,0,0,0,0,513,0,714,1191,0,0,0,154,0,255,0,0
1339714067391830993,4360,1339714067391830993,mikrokopter,0.0,160,15,0,-6,0,20,13,3,103,10,672,160,147,197,151,164,155,165,163,0,0,0,0,512,0,714,1193,0,0,0,154,0,255,0,0
1339714067492178910,4361,1339714067492178910,mikrokopter,0.0,160,15,0,-4,0,22,13,3,103,-14,672,168,147,209,152,170,153,165,157,0,0,0,0,511,0,715,1195,0,0,0,154,0,255,0,0
1339714067591587898,4362,1339714067591587898,mikrokopter,0.0,160,15,0,-2,5,18,13,1,102,2,672,155,147,196,152,175,161,168,150,0,0,0,0,510,0,701,1197,0,0,0,154,0,255,0,0
1339714067692019197,4363,1339714067692019197,mikrokopter,0.0,160,15,0,-1,10,20,12,-1,103,11,672,156,147,197,153,175,156,167,156,0,0,0,0,508,0,691,1199,0,0,0,154,0,255,0,0
1339714067751586595,4364,1339714067751586595,mikrokopter,0.0,160,15,0,0,11,20,13,-4,103,15,672,151,147,197,153,169,145,152,164,0,0,0,0,508,0,693,1200,0,0,0,154,0,255,0,0
1339714067811907064,4365,1339714067811907064,mikrokopter,0.0,160,15,0,0,13,18,13,-4,103,-25,672,152,147,209,153,171,159,164,152,0,0,0,0,508,0,698,1202,0,0,0,154,0,255,0,0
1339714067912365129,4366,1339714067912365129,mikrokopter,0.0,160,15,0,1,15,16,12,-7,101,-19,672,141,147,196,152,155,156,149,164,0,0,0,0,507,0,701,1204,0,0,0,154,0,255,0,0
1339714068012618613,4367,1339714068012618613,mikrokopter,0.0,160,15,0,3,17,16,7,-3,101,3,672,157,147,207,151,161,153,157,156,0,0,0,0,506,0,694,1206,0,0,0,154,0,255,0,0
1339714068132032499,4368,1339714068132032499,mikrokopter,0.0,160,15,0,5,17,17,11,-5,101,11,672,141,147,199,151,163,164,159,170,0,0,0,0,505,0,704,1208,0,0,0,154,0,255,0,0
1339714068291817992,4369,1339714068291817992,mikrokopter,0.0,160,15,0,5,16,15,12,0,101,-7,672,144,147,195,151,155,154,154,169,0,0,0,0,504,0,700,1210,0,0,0,154,0,255,0,0
1339714068331655535,4370,1339714068331655535,mikrokopter,0.0,160,15,0,6,17,13,12,-7,102,-7,672,170,147,197,151,156,165,152,171,0,0,0,0,504,0,700,1212,0,0,0,154,0,255,0,0
1339714068452089571,4371,1339714068452089571,mikrokopter,0.0,160,15,0,8,18,13,12,-9,104,4,672,144,147,199,151,158,158,141,176,0,0,0,0,502,0,699,1214,0,0,0,154,0,255,0,0
1339714068552375756,4372,1339714068552375756,mikrokopter,0.0,160,15,0,10,20,12,8,-9,105,38,672,149,147,195,151,160,166,151,167,0,0,0,0,501,0,692,1216,0,0,0,154,0,255,0,0
1339714068651611767,4373,1339714068651611767,mikrokopter,0.0,160,15,0,14,26,12,10,-3,108,46,672,158,147,197,151,163,170,160,166,0,0,0,0,498,0,698,1218,0,0,0,154,0,255,0,0
1339714068772218302,4374,1339714068772218302,mikrokopter,0.0,160,15,0,17,28,12,13,-7,108,21,672,144,147,197,151,165,168,152,168,0,0,0,0,496,0,698,1219,0,0,0,154,0,255,0,0
1339714068871585611,4375,1339714068871585611,mikrokopter,0.0,160,15,0,22,30,13,10,-3,109,25,668,160,147,199,151,158,160,149,163,0,0,0,0,492,0,697,1221,0,0,0,154,0,255,0,0
1339714068971820322,4376,1339714068971820322,mikrokopter,0.0,160,15,0,26,33,15,10,-2,108,-1,668,152,147,195,150,151,163,150,168,0,0,0,0,489,0,694,1223,0,0,0,154,0,255,0,0
1339714069072194514,4377,1339714069072194514,mikrokopter,0.0,160,15,0,27,31,14,11,2,107,-12,668,139,147,197,151,164,163,160,151,0,0,0,0,489,0,693,1225,0,0,0,154,0,255,0,0
1339714069171599757,4378,1339714069171599757,mikrokopter,0.0,160,15,0,27,29,13,10,2,106,-23,668,141,147,199,150,164,166,158,153,0,0,0,0,489,0,694,1227,0,0,0,154,0,255,0,0
1339714069292133741,4379,1339714069292133741,mikrokopter,0.0,160,15,0,28,23,12,12,6,107,8,668,156,147,196,150,155,159,157,158,0,0,0,0,488,0,690,1229,0,0,0,154,0,255,0,0
1339714069391620767,4380,1339714069391620767,mikrokopter,0.0,160,15,0,31,17,13,10,4,109,14,668,154,147,197,151,172,166,167,154,0,0,0,0,486,0,690,1231,0,0,0,154,0,255,0,0
1339714069491893063,4381,1339714069491893063,mikrokopter,0.0,160,15,0,28,13,18,11,7,108,13,668,151,147,199,151,164,152,157,159,0,0,0,0,488,0,684,1233,0,0,0,154,0,255,0,0
1339714069592386263,4382,1339714069592386263,mikrokopter,0.0,160,15,0,20,8,15,9,8,109,15,664,150,147,195,151,164,151,155,161,0,0,0,0,493,0,678,1235,0,0,0,154,0,255,0,0
1339714069691775511,4383,1339714069691775511,mikrokopter,0.0,160,15,0,16,4,15,9,6,110,-13,664,137,147,197,151,162,156,159,165,0,0,0,0,496,0,683,1237,0,0,0,154,0,255,0,0
1339714069752383948,4384,1339714069752383948,mikrokopter,0.0,160,15,0,16,3,14,9,13,110,-23,664,133,147,196,151,170,155,167,155,0,0,0,0,497,0,689,1238,0,0,0,154,0,255,0,0
1339714069811641902,4385,1339714069811641902,mikrokopter,0.0,160,15,0,14,1,15,10,9,110,17,664,155,147,199,151,166,156,165,156,0,0,0,0,498,0,691,1240,0,0,0,154,0,255,0,0
1339714069911847434,4386,1339714069911847434,mikrokopter,0.0,160,15,0,13,1,15,11,7,111,1,664,153,147,205,151,169,156,163,155,0,0,0,0,499,0,696,1242,0,0,0,154,0,255,0,0
1339714070012246839,4387,1339714070012246839,mikrokopter,0.0,160,15,0,15,4,15,10,10,113,15,664,138,147,197,150,169,154,161,154,0,0,0,0,497,0,699,1244,0,0,0,154,0,255,0,0
1339714070131642248,4388,1339714070131642248,mikrokopter,0.0,160,15,0,18,8,15,13,8,112,12,664,160,147,199,151,175,157,167,138,0,0,0,0,495,0,689,1246,0,0,0,154,0,255,0,0
1339714070291838782,4389,1339714070291838782,mikrokopter,0.0,160,15,0,23,12,17,15,6,113,18,664,168,147,195,151,168,154,160,160,0,0,0,0,492,0,693,1248,0,0,0,154,0,255,0,0
1339714070331757073,4390,1339714070331757073,mikrokopter,0.0,160,15,0,27,12,16,12,5,112,-7,664,151,147,197,150,169,140,138,148,0,0,0,0,489,0,683,1250,0,0,0,154,0,255,0,0
1339714070452269978,4391,1339714070452269978,mikrokopter,0.0,160,15,0,28,13,18,14,7,113,14,664,153,147,199,151,171,147,156,154,0,0,0,0,488,0,677,1252,0,0,0,154,0,255,0,0
1339714070551638008,4392,1339714070551638008,mikrokopter,0.0,160,15,0,29,12,17,18,3,112,-14,664,155,147,196,151,166,159,160,158,0,0,0,0,487,0,680,1253,0,0,0,154,0,255,0,0
1339714070652214187,4393,1339714070652214187,mikrokopter,0.0,160,15,0,30,12,17,15,4,113,1,664,159,147,197,152,172,153,160,155,0,0,0,0,486,0,688,1255,0,0,0,154,0,255,0,0
1339714070752592301,4394,1339714070752592301,mikrokopter,0.0,160,15,0,31,12,18,14,2,114,-7,668,133,146,197,151,165,157,159,165,0,0,0,0,486,0,693,1256,0,0,0,154,0,255,0,0
1339714070871621822,4395,1339714070871621822,mikrokopter,0.0,160,15,0,30,11,17,11,2,113,20,668,151,146,200,151,172,146,144,140,0,0,0,0,486,0,693,1258,0,0,0,154,0,255,0,0
1339714070971864099,4396,1339714070971864099,mikrokopter,0.0,160,15,0,30,10,18,14,2,116,16,668,166,146,196,151,145,154,152,166,0,0,0,0,487,0,687,1260,0,0,0,154,0,255,0,0
1339714071072135713,4397,1339714071072135713,mikrokopter,0.0,160,15,0,29,8,17,8,3,116,-28,668,134,146,197,151,172,155,159,153,0,0,0,0,487,0,685,1262,0,0,0,154,0,255,0,0
1339714071171421417,4398,1339714071171421417,mikrokopter,0.0,160,15,0,28,7,18,12,3,115,-32,668,150,146,199,151,165,157,158,160,0,0,0,0,488,0,692,1264,0,0,0,154,0,255,0,0
1339714071291917015,4399,1339714071291917015,mikrokopter,0.0,160,15,0,27,5,18,12,3,115,-9,668,145,146,195,151,167,156,158,157,0,0,0,0,488,0,699,1266,0,0,0,154,0,255,0,0
1339714071391380527,4400,1339714071391380527,mikrokopter,0.0,160,15,0,26,3,18,12,-1,117,5,668,162,146,197,151,169,162,159,161,0,0,0,0,489,0,695,1268,0,0,0,154,0,255,0,0
1339714071491719608,4401,1339714071491719608,mikrokopter,0.0,160,15,0,25,3,18,12,-3,119,36,668,150,146,199,152,170,159,154,150,0,0,0,0,490,0,696,1270,0,0,0,154,0,255,0,0
1339714071592034043,4402,1339714071592034043,mikrokopter,0.0,160,15,0,22,3,19,13,1,120,48,656,145,146,195,151,160,152,151,158,0,0,0,0,492,0,691,1272,0,0,0,154,0,255,0,0
1339714071692313135,4403,1339714071692313135,mikrokopter,0.0,160,15,0,18,2,18,12,-1,121,22,656,152,146,197,151,159,158,153,161,0,0,0,0,495,0,674,1274,0,0,0,154,0,255,0,0
1339714071752050272,4404,1339714071752050272,mikrokopter,0.0,160,15,0,17,2,17,13,-1,120,9,656,160,146,197,151,162,166,160,158,0,0,0,0,496,0,666,1275,0,0,0,154,0,255,0,0
1339714071811765966,4405,1339714071811765966,mikrokopter,0.0,160,15,0,14,0,18,16,2,119,-26,656,146,146,199,151,147,165,160,151,0,0,0,0,498,0,668,1277,0,0,0,154,0,255,0,0
1339714071912291588,4406,1339714071912291588,mikrokopter,0.0,160,15,0,10,-2,19,10,1,118,-27,656,154,146,195,150,155,153,147,158,0,0,0,0,501,0,661,1279,0,0,0,154,0,255,0,0
1339714072012502871,4407,1339714072012502871,mikrokopter,0.0,160,15,0,4,-1,19,13,5,119,-17,656,160,146,197,150,148,159,158,163,0,0,0,0,505,0,660,1281,0,0,0,154,0,255,0,0
1339714072132096160,4408,1339714072132096160,mikrokopter,0.0,160,15,0,0,-4,16,15,2,119,4,656,151,146,199,151,159,162,163,166,0,0,0,0,508,0,665,1283,0,0,0,154,0,255,0,0
1339714072292118408,4409,1339714072292118408,mikrokopter,0.0,160,15,0,0,-4,12,0,3,120,-16,656,156,146,196,151,157,146,153,159,0,0,0,0,508,0,652,1285,0,0,0,154,0,255,0,0
1339714072331986984,4410,1339714072331986984,mikrokopter,0.0,160,15,0,4,-1,14,6,2,120,-51,656,156,146,197,151,149,158,155,163,0,0,0,0,505,0,650,1286,0,0,0,154,0,255,0,0
1339714072451395335,4411,1339714072451395335,mikrokopter,0.0,160,15,0,8,3,16,15,-1,120,-13,656,151,146,199,151,152,161,153,162,0,0,0,0,503,0,655,1288,0,0,0,154,0,255,0,0
1339714072551896879,4412,1339714072551896879,mikrokopter,0.0,160,15,0,12,9,16,7,-2,121,24,652,150,146,195,152,163,158,152,149,0,0,0,0,500,0,645,1290,0,0,0,154,0,255,0,0
1339714072652539844,4413,1339714072652539844,mikrokopter,0.0,160,15,0,15,15,15,12,-4,123,-13,648,143,146,197,151,163,160,152,152,0,0,0,0,498,0,647,1292,0,0,0,154,0,255,0,0
1339714072751942466,4414,1339714072751942466,mikrokopter,0.0,160,15,0,16,17,15,15,0,123,-6,648,152,146,206,151,157,156,148,155,0,0,0,0,497,0,647,1293,0,0,0,154,0,255,0,0
1339714072871915122,4415,1339714072871915122,mikrokopter,0.0,160,15,0,19,16,16,11,1,124,-19,648,161,146,199,151,164,159,152,144,0,0,0,0,494,0,651,1295,0,0,0,154,0,255,0,0
1339714072972043721,4416,1339714072972043721,mikrokopter,0.0,160,15,0,18,15,17,12,3,123,-1,648,148,146,195,151,158,153,151,136,0,0,0,0,495,0,645,1297,0,0,0,154,0,255,0,0
1339714073072426965,4417,1339714073072426965,mikrokopter,0.0,160,15,0,18,14,14,3,3,125,-31,648,147,146,197,151,159,141,144,152,0,0,0,0,495,0,643,1298,0,0,0,154,0,255,0,0
1339714073171883373,4418,1339714073171883373,mikrokopter,0.0,160,15,0,18,14,11,7,3,124,16,648,152,146,199,151,159,159,151,149,0,0,0,0,495,0,643,1300,0,0,0,154,0,255,0,0
1339714073291591348,4419,1339714073291591348,mikrokopter,0.0,160,15,0,21,12,11,9,0,126,-24,648,135,146,195,150,150,156,137,163,0,0,0,0,493,0,636,1302,0,0,0,154,0,255,0,0
1339714073392021733,4420,1339714073392021733,mikrokopter,0.0,160,15,0,22,12,14,8,3,126,-15,640,160,146,197,150,155,133,126,159,0,0,0,0,492,0,640,1304,0,0,0,154,0,255,0,0
1339714073492341007,4421,1339714073492341007,mikrokopter,0.0,160,15,0,20,13,13,11,1,127,26,640,146,146,199,151,157,158,149,154,0,0,0,0,494,0,635,1306,0,0,0,154,0,255,0,0
1339714073592029629,4422,1339714073592029629,mikrokopter,0.0,160,15,0,19,13,13,12,5,126,-11,640,147,146,196,150,159,149,144,157,0,0,0,0,494,0,624,1308,0,0,0,154,0,255,0,0
1339714073692210132,4423,1339714073692210132,mikrokopter,0.0,160,15,0,18,11,13,7,10,126,14,640,149,146,198,150,155,148,154,155,0,0,0,0,495,0,625,1309,0,0,0,154,0,255,0,0
1339714073731670219,4424,1339714073731670219,mikrokopter,0.0,160,15,0,17,11,15,8,6,126,8,640,139,146,197,150,156,155,153,155,0,0,0,0,496,0,625,1310,0,0,0,154,0,255,0,0
1339714073811538252,4425,1339714073811538252,mikrokopter,0.0,160,15,0,12,11,12,7,7,127,-26,640,144,146,199,149,154,150,143,144,0,0,0,0,499,0,617,1312,0,0,0,154,0,255,0,0
1339714073912060686,4426,1339714073912060686,mikrokopter,0.0,160,15,0,8,11,9,11,9,126,-35,640,138,146,196,149,157,156,152,158,0,0,0,0,502,0,622,1314,0,0,0,154,0,255,0,0
1339714074012409083,4427,1339714074012409083,mikrokopter,0.0,160,15,0,6,8,11,10,11,127,-22,640,150,146,197,149,160,159,158,142,0,0,0,0,504,0,615,1315,0,0,0,154,0,255,0,0
1339714074131897288,4428,1339714074131897288,mikrokopter,0.0,160,15,0,5,8,12,15,8,127,-9,640,156,146,199,150,162,157,158,152,0,0,0,0,504,0,621,1317,0,0,0,154,0,255,0,0
1339714074291892753,4429,1339714074291892753,mikrokopter,0.0,160,15,0,4,6,7,6,7,126,7,640,144,146,195,150,159,141,141,141,0,0,0,0,505,0,621,1319,0,0,0,154,0,255,0,0
1339714074331870630,4430,1339714074331870630,mikrokopter,0.0,160,15,0,4,4,10,8,7,127,18,640,156,146,197,150,142,144,141,156,0,0,0,0,506,0,627,1321,0,0,0,154,0,255,0,0
1339714074451423924,4431,1339714074451423924,mikrokopter,0.0,160,15,0,3,4,12,8,5,129,17,656,152,146,199,150,154,157,156,161,0,0,0,0,506,0,632,1323,0,0,0,154,0,255,0,0
1339714074551863264,4432,1339714074551863264,mikrokopter,0.0,160,15,0,1,4,11,10,4,129,4,656,163,146,195,152,164,157,158,155,0,0,0,0,507,0,637,1325,0,0,0,154,0,255,0,0
1339714074652105794,4433,1339714074652105794,mikrokopter,0.0,160,15,0,1,8,12,10,1,127,13,656,153,146,197,152,165,155,156,157,0,0,0,0,508,0,639,1326,0,0,0,154,0,255,0,0
1339714074752757231,4434,1339714074752757231,mikrokopter,0.0,160,15,0,1,10,12,8,2,126,16,656,153,146,197,152,146,155,155,158,0,0,0,0,508,0,645,1327,0,0,0,154,0,255,0,0
1339714074871564712,4435,1339714074871564712,mikrokopter,0.0,160,15,0,1,13,14,11,5,126,35,656,138,146,199,152,166,142,154,154,0,0,0,0,507,0,647,1329,0,0,0,154,0,255,0,0
1339714074971820997,4436,1339714074971820997,mikrokopter,0.0,160,15,0,0,15,11,-7,1,125,-9,656,149,146,195,152,157,156,156,159,0,0,0,0,508,0,653,1331,0,0,0,154,0,255,0,0
1339714075072198045,4437,1339714075072198045,mikrokopter,0.0,160,15,0,-1,16,10,7,5,125,-31,656,167,146,197,152,170,142,147,153,0,0,0,0,508,0,656,1333,0,0,0,154,0,255,0,0
1339714075172382617,4438,1339714075172382617,mikrokopter,0.0,160,15,0,-2,17,12,4,3,123,-39,656,147,146,199,152,164,143,149,151,0,0,0,0,509,0,655,1335,0,0,0,154,0,255,0,0
1339714075291721166,4439,1339714075291721166,mikrokopter,0.0,160,15,0,-3,14,10,10,3,123,21,656,138,146,196,152,162,156,159,161,0,0,0,0,510,0,660,1337,0,0,0,154,0,255,0,0
1339714075392141031,4440,1339714075392141031,mikrokopter,0.0,160,15,0,-2,11,11,16,2,124,26,656,133,146,197,152,166,159,160,153,0,0,0,0,509,0,670,1338,0,0,0,154,0,255,0,0
1339714075491498566,4441,1339714075491498566,mikrokopter,0.0,160,15,0,-2,8,12,6,1,125,12,656,153,146,199,151,154,155,147,160,0,0,0,0,509,0,666,1340,0,0,0,154,0,255,0,0
1339714075591970457,4442,1339714075591970457,mikrokopter,0.0,160,15,0,-1,6,11,10,3,125,49,656,161,146,195,151,158,154,155,166,0,0,0,0,509,0,655,1342,0,0,0,154,0,255,0,0
1339714075692271102,4443,1339714075692271102,mikrokopter,0.0,160,15,0,0,5,12,8,5,127,54,656,152,146,197,151,154,147,152,158,0,0,0,0,508,0,651,1344,0,0,0,154,0,255,0,0
1339714075751900290,4444,1339714075751900290,mikrokopter,0.0,160,15,0,0,6,13,9,2,127,27,656,155,146,197,151,164,155,152,161,0,0,0,0,508,0,654,1345,0,0,0,154,0,255,0,0
1339714075811596803,4445,1339714075811596803,mikrokopter,0.0,160,15,0,1,8,10,20,2,124,19,656,142,146,199,150,145,165,159,165,0,0,0,0,508,0,652,1347,0,0,0,154,0,255,0,0
1339714075912061011,4446,1339714075912061011,mikrokopter,0.0,160,15,0,3,10,10,13,6,124,16,656,160,146,195,151,158,159,163,157,0,0,0,0,506,0,660,1349,0,0,0,154,0,255,0,0
1339714076012417811,4447,1339714076012417811,mikrokopter,0.0,160,15,0,3,12,12,13,-2,124,29,656,152,146,197,152,162,156,152,158,0,0,0,0,506,0,661,1351,0,0,0,154,0,255,0,0
1339714076131826771,4448,1339714076131826771,mikrokopter,0.0,160,15,0,3,13,10,14,3,123,5,656,160,146,199,152,163,152,158,159,0,0,0,0,506,0,661,1353,0,0,0,154,0,255,0,0
1339714076291849364,4449,1339714076291849364,mikrokopter,0.0,160,15,0,4,12,9,16,3,123,4,656,157,146,195,152,159,151,157,160,0,0,0,0,505,0,668,1354,0,0,0,154,0,255,0,0
1339714076331675841,4450,1339714076331675841,mikrokopter,0.0,160,15,0,4,11,9,15,0,123,17,656,165,146,197,152,159,160,159,159,0,0,0,0,505,0,670,1356,0,0,0,154,0,255,0,0
1339714076452381509,4451,1339714076452381509,mikrokopter,0.0,160,15,0,5,11,9,16,2,124,10,656,152,146,199,153,169,162,166,147,0,0,0,0,505,0,675,1358,0,0,0,154,0,255,0,0
1339714076552168984,4452,1339714076552168984,mikrokopter,0.0,160,15,0,7,11,9,17,3,123,-41,644,145,146,196,152,163,152,154,154,0,0,0,0,503,0,672,1360,0,0,0,154,0,255,0,0
1339714076652467193,4453,1339714076652467193,mikrokopter,0.0,160,15,0,10,12,8,15,5,120,-14,644,149,146,197,152,157,157,162,149,0,0,0,0,501,0,664,1362,0,0,0,154,0,255,0,0
1339714076752146142,4454,1339714076752146142,mikrokopter,0.0,160,15,0,11,12,8,15,3,120,-23,644,168,146,197,152,168,148,153,147,0,0,0,0,500,0,662,1363,0,0,0,154,0,255,0,0
1339714076871792901,4455,1339714076871792901,mikrokopter,0.0,160,15,0,15,12,7,15,3,122,-8,644,159,146,199,153,150,150,164,144,0,0,0,0,497,0,660,1365,0,0,0,154,0,255,0,0
1339714076972176388,4456,1339714076972176388,mikrokopter,0.0,160,15,0,18,13,8,15,1,122,-11,644,130,146,196,152,166,151,156,150,0,0,0,0,495,0,648,1367,0,0,0,154,0,255,0,0
1339714077072397297,4457,1339714077072397297,mikrokopter,0.0,160,15,0,20,14,7,17,2,122,-1,644,155,146,197,152,164,157,158,125,0,0,0,0,493,0,640,1369,0,0,0,154,0,255,0,0
1339714077171787328,4458,1339714077171787328,mikrokopter,0.0,160,15,0,22,14,6,13,7,122,21,644,142,146,199,152,166,153,165,138,0,0,0,0,492,0,630,1371,0,0,0,154,0,255,0,0
1339714077292378400,4459,1339714077292378400,mikrokopter,0.0,160,15,0,24,15,9,14,6,123,4,652,147,146,195,152,177,148,159,144,0,0,0,0,491,0,632,1372,0,0,0,154,0,255,0,0
1339714077391917119,4460,1339714077391917119,mikrokopter,0.0,160,15,0,22,15,9,14,5,121,7,652,152,146,197,152,162,153,162,147,0,0,0,0,492,0,644,1374,0,0,0,154,0,255,0,0
1339714077492263180,4461,1339714077492263180,mikrokopter,0.0,160,15,0,20,15,9,12,4,122,9,652,158,146,200,152,173,150,160,150,0,0,0,0,493,0,641,1376,0,0,0,154,0,255,0,0
1339714077591566678,4462,1339714077591566678,mikrokopter,0.0,160,15,0,18,15,8,15,3,121,-7,652,165,146,196,152,164,159,166,149,0,0,0,0,495,0,645,1378,0,0,0,154,0,255,0,0
1339714077692194050,4463,1339714077692194050,mikrokopter,0.0,160,15,0,16,15,8,12,4,120,-11,652,161,146,198,153,165,148,162,150,0,0,0,0,497,0,648,1380,0,0,0,154,0,255,0,0
1339714077751801321,4464,1339714077751801321,mikrokopter,0.0,160,15,0,15,15,10,14,3,119,-19,652,138,146,196,153,147,150,163,153,0,0,0,0,497,0,650,1380,0,0,0,154,0,255,0,0
1339714077812102726,4465,1339714077812102726,mikrokopter,0.0,160,15,0,14,15,8,12,1,118,-6,652,146,146,198,153,175,140,141,145,0,0,0,0,498,0,647,1382,0,0,0,154,0,255,0,0
1339714077912384949,4466,1339714077912384949,mikrokopter,0.0,160,15,0,13,15,7,13,2,119,0,652,150,146,199,153,175,160,169,143,0,0,0,0,499,0,643,1384,0,0,0,154,0,255,0,0
1339714078011661771,4467,1339714078011661771,mikrokopter,0.0,160,15,0,12,16,7,15,2,120,4,652,145,146,196,152,164,151,159,151,0,0,0,0,499,0,649,1386,0,0,0,154,0,255,0,0
1339714078132293714,4468,1339714078132293714,mikrokopter,0.0,160,15,0,12,16,5,13,0,119,7,652,164,146,197,153,173,154,162,142,0,0,0,0,500,0,658,1388,0,0,0,154,0,255,0,0
1339714078292285542,4469,1339714078292285542,mikrokopter,0.0,160,15,0,12,14,5,13,0,118,7,652,140,146,199,152,158,164,168,157,0,0,0,0,499,0,660,1390,0,0,0,154,0,255,0,0
1339714078332213013,4470,1339714078332213013,mikrokopter,0.0,160,15,0,16,10,5,13,-1,116,14,652,142,146,195,153,169,148,158,150,0,0,0,0,496,0,650,1392,0,0,0,154,0,255,0,0
1339714078451777112,4471,1339714078451777112,mikrokopter,0.0,160,15,0,18,8,7,8,2,117,-17,652,145,146,197,152,170,154,161,140,0,0,0,0,495,0,653,1394,0,0,0,154,0,255,0,0
1339714078552383122,4472,1339714078552383122,mikrokopter,0.0,160,15,0,18,8,6,11,4,117,0,652,158,146,199,152,174,159,168,143,0,0,0,0,495,0,655,1396,0,0,0,154,0,255,0,0
1339714078651826240,4473,1339714078651826240,mikrokopter,0.0,160,15,0,19,8,7,10,-4,118,-12,652,153,146,195,153,167,156,160,150,0,0,0,0,495,0,650,1397,0,0,0,154,0,255,0,0
1339714078776929715,4474,1339714078776929715,mikrokopter,0.0,160,15,0,18,8,5,11,-1,117,-2,652,134,146,197,152,169,157,159,150,0,0,0,0,495,0,649,1398,0,0,0,154,0,255,0,0
1339714078871552314,4475,1339714078871552314,mikrokopter,0.0,160,15,0,17,7,6,13,2,116,-6,652,157,146,199,153,166,149,159,146,0,0,0,0,495,0,647,1400,0,0,0,154,0,255,0,0
1339714078971958025,4476,1339714078971958025,mikrokopter,0.0,160,15,0,17,7,7,14,1,116,-28,652,159,146,195,153,177,149,163,143,0,0,0,0,496,0,651,1402,0,0,0,154,0,255,0,0
1339714079072145217,4477,1339714079072145217,mikrokopter,0.0,160,15,0,14,7,7,14,3,115,4,652,155,146,197,153,167,156,168,151,0,0,0,0,498,0,644,1404,0,0,0,154,0,255,0,0
1339714079191739148,4478,1339714079191739148,mikrokopter,0.0,160,15,0,13,7,5,12,0,117,11,652,140,146,199,152,168,157,162,135,0,0,0,0,499,0,646,1406,0,0,0,154,0,255,0,0
1339714079292209051,4479,1339714079292209051,mikrokopter,0.0,160,15,0,11,9,6,15,2,118,20,652,153,146,195,152,166,153,158,156,0,0,0,0,500,0,649,1407,0,0,0,154,0,255,0,0
1339714079391604619,4480,1339714079391604619,mikrokopter,0.0,160,15,0,8,10,5,17,2,117,4,652,154,146,197,152,166,149,156,149,0,0,0,0,502,0,649,1409,0,0,0,154,0,255,0,0
1339714079492039324,4481,1339714079492039324,mikrokopter,0.0,160,15,0,7,12,7,17,2,118,0,652,155,146,199,152,161,147,153,157,0,0,0,0,503,0,644,1411,0,0,0,154,0,255,0,0
1339714079611553917,4482,1339714079611553917,mikrokopter,0.0,160,15,0,5,13,5,16,0,117,-8,652,148,146,196,151,173,156,156,145,0,0,0,0,505,0,649,1413,0,0,0,154,0,255,0,0
1339714079711897414,4483,1339714079711897414,mikrokopter,0.0,160,15,0,5,13,6,28,0,116,-3,652,147,146,197,151,161,163,165,152,0,0,0,0,505,0,652,1415,0,0,0,154,0,255,0,0
1339714079752443596,4484,1339714079752443596,mikrokopter,0.0,160,15,0,5,13,7,23,1,116,1,652,162,146,197,152,164,145,151,156,0,0,0,0,505,0,649,1416,0,0,0,154,0,255,0,0
1339714079812138105,4485,1339714079812138105,mikrokopter,0.0,160,15,0,5,14,7,16,2,116,13,652,141,146,199,150,152,156,158,150,0,0,0,0,505,0,644,1417,0,0,0,154,0,255,0,0
1339714079912451921,4486,1339714079912451921,mikrokopter,0.0,160,15,0,5,16,7,15,2,118,24,652,145,146,196,150,158,149,147,158,0,0,0,0,504,0,645,1419,0,0,0,154,0,255,0,0
1339714080011868228,4487,1339714080011868228,mikrokopter,0.0,160,15,0,6,16,6,17,3,118,-21,652,179,146,197,150,169,161,163,153,0,0,0,0,504,0,646,1421,0,0,0,154,0,255,0,0
1339714080132360024,4488,1339714080132360024,mikrokopter,0.0,160,15,0,8,17,6,14,4,115,-35,652,150,146,199,151,163,154,163,148,0,0,0,0,502,0,635,1423,0,0,0,154,0,255,0,0
1339714080291383421,4489,1339714080291383421,mikrokopter,0.0,160,15,0,10,17,7,15,3,115,-36,652,149,146,195,151,167,159,162,154,0,0,0,0,501,0,633,1425,0,0,0,154,0,255,0,0
1339714080332274265,4490,1339714080332274265,mikrokopter,0.0,160,15,0,9,17,8,14,2,115,0,652,143,146,197,151,171,160,164,144,0,0,0,0,501,0,637,1427,0,0,0,154,0,255,0,0
1339714080451830560,4491,1339714080451830560,mikrokopter,0.0,160,15,0,10,16,6,16,3,114,7,652,160,146,200,152,169,143,152,146,0,0,0,0,501,0,644,1429,0,0,0,154,0,255,0,0
1339714080552456985,4492,1339714080552456985,mikrokopter,0.0,160,15,0,9,16,8,15,0,114,15,652,145,146,196,152,163,157,163,154,0,0,0,0,501,0,644,1430,0,0,0,154,0,255,0,0
1339714080651881613,4493,1339714080651881613,mikrokopter,0.0,160,15,0,8,17,7,12,0,116,4,652,138,146,198,152,146,156,160,156,0,0,0,0,502,0,642,1432,0,0,0,154,0,255,0,0
1339714080752625230,4494,1339714080752625230,mikrokopter,0.0,160,15,0,7,16,7,12,3,114,-9,652,143,146,197,151,169,161,166,151,0,0,0,0,503,0,640,1433,0,0,0,154,0,255,0,0
1339714080871592221,4495,1339714080871592221,mikrokopter,0.0,160,15,0,6,16,7,5,3,115,8,652,144,146,199,152,173,155,161,142,0,0,0,0,504,0,645,1435,0,0,0,154,0,255,0,0
1339714080971814557,4496,1339714080971814557,mikrokopter,0.0,160,15,0,4,16,8,14,1,115,23,652,148,146,195,151,149,153,154,156,0,0,0,0,505,0,651,1437,0,0,0,154,0,255,0,0
1339714081072297258,4497,1339714081072297258,mikrokopter,0.0,160,15,0,2,17,8,11,4,115,14,652,160,146,197,152,167,151,163,153,0,0,0,0,507,0,653,1439,0,0,0,154,0,255,0,0
1339714081171673640,4498,1339714081171673640,mikrokopter,0.0,160,15,0,0,16,8,10,2,115,-15,652,143,146,199,151,169,155,161,152,0,0,0,0,508,0,649,1441,0,0,0,154,0,255,0,0
1339714081292254281,4499,1339714081292254281,mikrokopter,0.0,160,15,0,0,16,7,11,5,114,21,652,143,146,196,151,172,132,146,149,0,0,0,0,508,0,654,1443,0,0,0,154,0,255,0,0
1339714081391794153,4500,1339714081391794153,mikrokopter,0.0,160,15,0,0,17,8,16,5,113,-12,652,158,146,197,151,167,157,165,155,0,0,0,0,508,0,653,1444,0,0,0,154,0,255,0,0
1339714081492187604,4501,1339714081492187604,mikrokopter,0.0,160,15,0,0,18,9,21,2,114,-24,652,159,146,199,152,169,149,158,142,0,0,0,0,508,0,655,1446,0,0,0,154,0,255,0,0
1339714081591649606,4502,1339714081591649606,mikrokopter,0.0,160,15,0,0,18,7,17,2,114,-6,652,148,146,195,152,169,152,161,146,0,0,0,0,508,0,655,1448,0,0,0,154,0,255,0,0
1339714081692321924,4503,1339714081692321924,mikrokopter,0.0,160,15,0,1,18,8,15,4,112,-30,652,145,146,197,152,172,155,161,143,0,0,0,0,508,0,648,1450,0,0,0,154,0,255,0,0
1339714081751973354,4504,1339714081751973354,mikrokopter,0.0,160,15,0,1,19,10,19,-2,111,-25,652,156,146,196,152,155,154,156,132,0,0,0,0,508,0,650,1451,0,0,0,154,0,255,0,0
1339714081812339800,4505,1339714081812339800,mikrokopter,0.0,160,15,0,1,21,7,15,4,110,-5,652,161,146,198,152,164,154,166,148,0,0,0,0,507,0,646,1453,0,0,0,154,0,255,0,0
1339714081911756478,4506,1339714081911756478,mikrokopter,0.0,160,15,0,1,23,7,15,0,111,-12,652,155,146,200,152,152,148,145,142,0,0,0,0,507,0,642,1454,0,0,0,154,0,255,0,0
1339714082012202587,4507,1339714082012202587,mikrokopter,0.0,160,15,0,0,23,8,17,0,110,-27,652,149,146,196,152,157,151,156,147,0,0,0,0,508,0,653,1456,0,0,0,154,0,255,0,0
1339714082131685923,4508,1339714082131685923,mikrokopter,0.0,160,15,0,1,23,7,13,1,108,-25,652,162,146,199,152,171,148,155,153,0,0,0,0,508,0,645,1458,0,0,0,154,0,255,0,0
1339714082291758962,4509,1339714082291758962,mikrokopter,0.0,160,15,0,1,23,7,19,3,106,-30,652,159,146,195,152,172,165,169,146,0,0,0,0,507,0,649,1460,0,0,0,154,0,255,0,0
1339714082332682010,4510,1339714082332682010,mikrokopter,0.0,160,15,0,2,23,8,11,-3,107,1,652,152,146,197,152,171,150,146,150,0,0,0,0,506,0,634,1462,0,0,0,154,0,255,0,0
1339714082452275835,4511,1339714082452275835,mikrokopter,0.0,160,15,0,3,22,7,15,-3,108,-17,652,150,146,199,152,168,165,166,144,0,0,0,0,506,0,639,1464,0,0,0,154,0,255,0,0
1339714082551757189,4512,1339714082551757189,mikrokopter,0.0,160,15,0,3,21,7,15,-2,107,-33,652,166,146,196,152,157,161,161,155,0,0,0,0,506,0,644,1466,0,0,0,154,0,255,0,0
1339714082652133607,4513,1339714082652133607,mikrokopter,0.0,160,15,0,3,18,5,14,-2,108,-2,652,154,146,197,152,172,154,153,148,0,0,0,0,506,0,641,1467,0,0,0,154,0,255,0,0
1339714082752441025,4514,1339714082752441025,mikrokopter,0.0,160,15,0,3,17,6,14,-1,109,26,652,165,146,197,153,174,157,163,140,0,0,0,0,506,0,642,1468,0,0,0,154,0,255,0,0
1339714082872364140,4515,1339714082872364140,mikrokopter,0.0,160,15,0,2,16,4,13,0,110,-12,652,156,146,199,153,178,147,163,142,0,0,0,0,507,0,642,1470,0,0,0,154,0,255,0,0
1339714082971768186,4516,1339714082971768186,mikrokopter,0.0,160,15,0,2,15,5,17,0,110,27,652,165,146,196,153,169,153,161,143,0,0,0,0,507,0,629,1472,0,0,0,154,0,255,0,0
1339714083072053051,4517,1339714083072053051,mikrokopter,0.0,160,15,0,2,16,6,13,2,112,-12,652,144,146,197,152,175,153,160,145,0,0,0,0,507,0,628,1474,0,0,0,154,0,255,0,0
1339714083171392711,4518,1339714083171392711,mikrokopter,0.0,160,15,0,3,16,6,15,0,112,3,652,147,146,199,152,172,158,163,150,0,0,0,0,506,0,641,1476,0,0,0,154,0,255,0,0
1339714083292026661,4519,1339714083292026661,mikrokopter,0.0,160,15,0,4,17,6,15,5,112,18,652,147,146,195,152,176,138,154,148,0,0,0,0,505,0,639,1477,0,0,0,154,0,255,0,0
1339714083391414862,4520,1339714083391414862,mikrokopter,0.0,160,15,0,4,16,5,15,6,113,17,652,154,146,197,152,179,136,150,136,0,0,0,0,505,0,642,1479,0,0,0,154,0,255,0,0
1339714083491852815,4521,1339714083491852815,mikrokopter,0.0,160,15,0,5,15,6,12,3,115,6,652,152,146,199,152,168,155,163,150,0,0,0,0,504,0,635,1481,0,0,0,154,0,255,0,0
1339714083592363336,4522,1339714083592363336,mikrokopter,0.0,160,15,0,6,13,7,15,9,114,-37,652,144,146,195,152,178,150,170,134,0,0,0,0,504,0,631,1483,0,0,0,154,0,255,0,0
1339714083691725975,4523,1339714083691725975,mikrokopter,0.0,160,15,0,7,11,5,13,5,113,-8,652,148,146,206,152,173,148,163,147,0,0,0,0,503,0,639,1485,0,0,0,154,0,255,0,0
1339714083751436429,4524,1339714083751436429,mikrokopter,0.0,160,15,0,7,10,6,12,10,113,-26,652,140,146,197,151,174,145,165,142,0,0,0,0,503,0,643,1486,0,0,0,154,0,255,0,0
1339714083812107595,4525,1339714083812107595,mikrokopter,0.0,160,15,0,7,9,6,15,6,112,-47,652,152,146,200,151,169,147,162,142,0,0,0,0,503,0,646,1487,0,0,0,154,0,255,0,0
1339714083912458460,4526,1339714083912458460,mikrokopter,0.0,160,15,0,7,8,8,13,6,112,-29,652,157,146,196,152,175,143,161,131,0,0,0,0,503,0,652,1489,0,0,0,154,0,255,0,0
1339714084011778918,4527,1339714084011778918,mikrokopter,0.0,160,15,0,7,7,6,14,0,111,-20,652,155,146,198,153,170,152,166,147,0,0,0,0,503,0,647,1491,0,0,0,154,0,255,0,0
1339714084132224036,4528,1339714084132224036,mikrokopter,0.0,160,15,0,6,7,5,13,7,111,-26,652,143,146,199,152,181,145,164,142,0,0,0,0,503,0,638,1493,0,0,0,154,0,255,0,0
1339714084292166503,4529,1339714084292166503,mikrokopter,0.0,160,15,0,6,7,8,13,9,112,-13,652,149,146,196,152,175,134,156,139,0,0,0,0,504,0,643,1495,0,0,0,154,0,255,0,0
1339714084332064805,4530,1339714084332064805,mikrokopter,0.0,160,15,0,6,6,4,7,8,112,-2,652,143,146,198,152,182,143,166,140,0,0,0,0,504,0,639,1497,0,0,0,154,0,255,0,0
1339714084432433836,4531,1339714084432433836,mikrokopter,0.0,160,15,0,6,4,5,11,12,113,9,652,147,146,195,152,169,140,173,140,0,0,0,0,504,0,649,1498,0,0,0,154,0,255,0,0
1339714084552052474,4532,1339714084552052474,mikrokopter,0.0,160,15,0,6,3,5,15,4,111,0,652,157,146,196,152,172,152,170,145,0,0,0,0,504,0,645,1500,0,0,0,154,0,255,0,0
1339714084652735366,4533,1339714084652735366,mikrokopter,0.0,160,15,0,6,2,6,11,6,110,3,652,155,146,198,153,176,144,169,138,0,0,0,0,504,0,642,1502,0,0,0,154,0,255,0,0
1339714084752052964,4534,1339714084752052964,mikrokopter,0.0,160,15,0,7,2,5,12,0,109,3,652,151,146,196,153,177,148,166,147,0,0,0,0,503,0,647,1503,0,0,0,154,0,255,0,0
1339714084871673837,4535,1339714084871673837,mikrokopter,0.0,160,15,0,6,3,6,19,4,108,0,652,154,146,199,153,181,138,167,119,0,0,0,0,503,0,645,1505,0,0,0,154,0,255,0,0
1339714084972077722,4536,1339714084972077722,mikrokopter,0.0,160,15,0,6,3,5,17,1,108,-6,652,151,146,195,153,186,146,166,121,0,0,0,0,504,0,643,1507,0,0,0,154,0,255,0,0
1339714085072416380,4537,1339714085072416380,mikrokopter,0.0,160,15,0,7,3,6,14,1,109,18,652,166,146,197,153,183,148,166,130,0,0,0,0,503,0,644,1509,0,0,0,154,0,255,0,0
1339714085171703260,4538,1339714085171703260,mikrokopter,0.0,160,15,0,9,2,6,14,1,109,1,652,154,146,199,153,181,145,170,127,0,0,0,0,502,0,651,1510,0,0,0,154,0,255,0,0
1339714085292240224,4539,1339714085292240224,mikrokopter,0.0,160,15,0,10,2,7,12,-3,109,4,652,173,146,195,154,180,147,165,137,0,0,0,0,501,0,651,1512,0,0,0,154,0,255,0,0
1339714085391783553,4540,1339714085391783553,mikrokopter,0.0,160,15,0,9,2,7,13,1,109,5,644,147,146,197,153,169,138,163,132,0,0,0,0,501,0,657,1514,0,0,0,154,0,255,0,0
1339714085492044555,4541,1339714085492044555,mikrokopter,0.0,160,15,0,8,5,7,16,-1,111,2,632,160,146,199,153,165,144,163,133,0,0,0,0,503,0,652,1516,0,0,0,154,0,255,0,0
1339714085591610026,4542,1339714085591610026,mikrokopter,0.0,160,15,0,6,8,7,12,0,110,11,628,157,146,205,153,160,146,165,131,0,0,0,0,504,0,629,1518,0,0,0,154,0,255,0,0
1339714085691907411,4543,1339714085691907411,mikrokopter,0.0,160,15,0,4,12,6,12,-1,111,1,628,148,146,197,153,154,140,157,139,0,0,0,0,505,0,615,1520,0,0,0,154,0,255,0,0
1339714085751578698,4544,1339714085751578698,mikrokopter,0.0,160,15,0,4,13,7,14,-6,110,22,628,146,146,197,152,162,152,156,141,0,0,0,0,505,0,613,1520,0,0,0,154,0,255,0,0
1339714085811898371,4545,1339714085811898371,mikrokopter,0.0,160,15,0,3,14,6,14,-2,111,6,628,154,146,199,153,174,146,160,120,0,0,0,0,506,0,604,1522,0,0,0,154,0,255,0,0
1339714085912506613,4546,1339714085912506613,mikrokopter,0.0,160,15,0,4,15,8,14,-6,110,9,632,149,146,196,153,158,143,150,143,0,0,0,0,505,0,596,1524,0,0,0,154,0,255,0,0
1339714086011736228,4547,1339714086011736228,mikrokopter,0.0,160,15,0,4,17,5,13,-3,110,7,636,153,146,197,152,170,155,161,140,0,0,0,0,505,0,598,1526,0,0,0,154,0,255,0,0
1339714086132251480,4548,1339714086132251480,mikrokopter,0.0,160,15,0,6,17,6,12,-7,110,25,640,141,146,199,152,168,138,137,145,0,0,0,0,504,0,601,1527,0,0,0,154,0,255,0,0
1339714086292285188,4549,1339714086292285188,mikrokopter,0.0,160,15,0,8,16,7,12,-4,112,13,652,139,146,195,151,171,155,155,151,0,0,0,0,502,0,599,1529,0,0,0,154,0,255,0,0
1339714086332164989,4550,1339714086332164989,mikrokopter,0.0,160,15,0,10,16,5,14,-2,111,43,652,149,146,197,151,170,160,165,141,0,0,0,0,501,0,612,1531,0,0,0,154,0,255,0,0
1339714086451673300,4551,1339714086451673300,mikrokopter,0.0,160,15,0,11,16,7,15,3,112,16,652,151,146,209,145,158,169,154,131,0,0,0,0,500,0,628,1533,0,0,0,154,0,255,0,0
1339714086552328829,4552,1339714086552328829,mikrokopter,0.0,160,15,0,11,16,5,11,9,109,-2,652,153,146,196,145,160,156,149,161,0,0,0,0,500,0,633,1534,0,0,0,154,0,255,0,0
1339714086651750998,4553,1339714086651750998,mikrokopter,0.0,160,15,0,11,17,4,6,8,107,-17,644,157,146,207,147,162,146,145,154,0,0,0,0,500,0,640,1536,0,0,0,154,0,255,0,0
1339714086752624355,4554,1339714086752624355,mikrokopter,0.0,160,15,0,11,18,5,10,7,106,-3,644,166,146,197,148,160,163,160,145,0,0,0,0,500,0,636,1537,0,0,0,154,0,255,0,0
1339714086871524020,4555,1339714086871524020,mikrokopter,0.0,160,15,0,10,19,5,11,9,105,-25,644,149,146,199,148,166,157,161,146,0,0,0,0,501,0,632,1539,0,0,0,154,0,255,0,0
1339714086971816595,4556,1339714086971816595,mikrokopter,0.0,160,15,0,10,20,3,14,9,105,-7,644,156,146,195,148,168,150,153,153,0,0,0,0,501,0,626,1541,0,0,0,154,0,255,0,0
1339714087072163024,4557,1339714087072163024,mikrokopter,0.0,160,15,0,9,20,7,7,7,106,17,644,158,146,197,149,145,158,161,161,0,0,0,0,502,0,624,1543,0,0,0,154,0,255,0,0
1339714087171457463,4558,1339714087171457463,mikrokopter,0.0,160,15,0,6,19,5,8,7,105,-39,644,147,146,199,149,168,160,163,148,0,0,0,0,503,0,628,1544,0,0,0,154,0,255,0,0
1339714087292185459,4559,1339714087292185459,mikrokopter,0.0,160,15,0,4,21,7,20,3,105,-11,644,150,146,196,150,152,155,154,154,0,0,0,0,505,0,634,1546,0,0,0,154,0,255,0,0
1339714087391625515,4560,1339714087391625515,mikrokopter,0.0,160,15,0,1,23,5,17,4,104,-12,644,145,146,197,150,164,161,161,152,0,0,0,0,507,0,627,1548,0,0,0,154,0,255,0,0
1339714087492016082,4561,1339714087492016082,mikrokopter,0.0,160,15,0,0,23,6,12,4,106,23,644,161,146,199,151,155,156,163,151,0,0,0,0,508,0,635,1550,0,0,0,154,0,255,0,0
1339714087592261316,4562,1339714087592261316,mikrokopter,0.0,160,15,0,0,24,6,6,4,106,8,644,154,146,195,151,171,152,158,139,0,0,0,0,508,0,637,1552,0,0,0,154,0,255,0,0
1339714087692090586,4563,1339714087692090586,mikrokopter,0.0,160,15,0,0,25,6,5,2,104,-2,644,157,146,197,151,174,153,158,120,0,0,0,0,508,0,638,1553,0,0,0,154,0,255,0,0
1339714087751781925,4564,1339714087751781925,mikrokopter,0.0,160,15,0,0,25,4,6,2,104,-32,644,149,146,197,151,153,144,151,154,0,0,0,0,508,0,641,1554,0,0,0,154,0,255,0,0
1339714087812374611,4565,1339714087812374611,mikrokopter,0.0,160,15,0,0,26,7,9,-2,103,12,644,161,146,199,152,155,147,147,156,0,0,0,0,508,0,640,1556,0,0,0,154,0,255,0,0
1339714087911851333,4566,1339714087911851333,mikrokopter,0.0,160,15,0,1,25,6,5,-4,103,25,644,142,146,195,152,158,159,159,155,0,0,0,0,507,0,628,1558,0,0,0,154,0,255,0,0
1339714088012074638,4567,1339714088012074638,mikrokopter,0.0,160,15,0,2,26,8,15,0,104,28,644,162,146,197,152,142,151,156,155,0,0,0,0,507,0,629,1560,0,0,0,154,0,255,0,0
1339714088131702741,4568,1339714088131702741,mikrokopter,0.0,160,15,0,2,28,6,9,-3,103,-33,644,156,146,209,152,157,150,148,147,0,0,0,0,507,0,629,1562,0,0,0,154,0,255,0,0
1339714088291720066,4569,1339714088291720066,mikrokopter,0.0,160,15,0,2,27,7,16,-1,101,5,664,143,145,196,151,165,170,167,163,0,0,0,0,507,0,632,1563,0,0,0,154,0,255,0,0
1339714088332602763,4570,1339714088332602763,mikrokopter,0.0,160,15,0,2,23,6,5,3,99,-32,664,154,145,208,151,173,156,163,149,0,0,0,0,507,0,632,1565,0,0,0,154,0,255,0,0
1339714088431940302,4571,1339714088431940302,mikrokopter,0.0,160,15,0,2,20,8,4,-1,99,-15,664,130,145,195,151,161,167,164,160,0,0,0,0,507,0,651,1567,0,0,0,154,0,255,0,0
1339714088552510050,4572,1339714088552510050,mikrokopter,0.0,160,15,0,1,16,6,6,2,97,-50,664,154,145,206,151,164,154,153,154,0,0,0,0,507,0,649,1569,0,0,0,154,0,255,0,0
1339714088652113888,4573,1339714088652113888,mikrokopter,0.0,160,15,0,2,15,7,8,0,97,10,664,162,145,199,151,164,162,155,161,0,0,0,0,507,0,649,1571,0,0,0,154,0,255,0,0
1339714088752734447,4574,1339714088752734447,mikrokopter,0.0,160,15,0,1,14,7,15,0,98,-24,664,155,145,197,152,164,157,152,158,0,0,0,0,507,0,649,1572,0,0,0,154,0,255,0,0
1339714088871656967,4575,1339714088871656967,mikrokopter,0.0,160,15,0,1,12,4,13,4,97,-43,664,146,145,199,151,179,164,166,142,0,0,0,0,507,0,647,1573,0,0,0,154,0,255,0,0
1339714088971954237,4576,1339714088971954237,mikrokopter,0.0,160,15,0,2,11,7,20,-3,97,5,664,152,145,205,152,174,160,152,142,0,0,0,0,507,0,648,1575,0,0,0,154,0,255,0,0
1339714089072328476,4577,1339714089072328476,mikrokopter,0.0,160,15,0,2,10,6,17,0,97,36,664,149,145,197,151,150,166,163,160,0,0,0,0,507,0,656,1577,0,0,0,154,0,255,0,0
1339714089171648077,4578,1339714089171648077,mikrokopter,0.0,160,15,0,2,9,5,16,-4,97,42,664,164,145,199,153,172,158,156,157,0,0,0,0,507,0,660,1579,0,0,0,154,0,255,0,0
1339714089292200933,4579,1339714089292200933,mikrokopter,0.0,160,15,0,3,9,4,26,-5,98,26,664,150,145,195,153,164,166,163,133,0,0,0,0,506,0,665,1581,0,0,0,154,0,255,0,0
1339714089391841864,4580,1339714089391841864,mikrokopter,0.0,160,15,0,6,7,4,13,-5,97,15,664,164,145,197,153,168,168,163,157,0,0,0,0,504,0,668,1583,0,0,0,154,0,255,0,0
1339714089492195852,4581,1339714089492195852,mikrokopter,0.0,160,15,0,10,5,5,11,-5,97,32,664,153,145,209,153,168,168,163,153,0,0,0,0,501,0,676,1585,0,0,0,154,0,255,0,0
1339714089591381988,4582,1339714089591381988,mikrokopter,0.0,160,15,0,13,4,6,13,-3,97,22,664,161,145,196,153,166,160,157,154,0,0,0,0,499,0,671,1587,0,0,0,154,0,255,0,0
1339714089691734092,4583,1339714089691734092,mikrokopter,0.0,160,15,0,14,5,4,15,-5,98,-22,660,147,145,197,153,168,169,164,158,0,0,0,0,498,0,664,1589,0,0,0,154,0,255,0,0
1339714089751410010,4584,1339714089751410010,mikrokopter,0.0,160,15,0,14,5,6,14,-5,96,-5,660,149,145,197,152,166,161,149,157,0,0,0,0,498,0,661,1590,0,0,0,154,0,255,0,0
1339714089812085115,4585,1339714089812085115,mikrokopter,0.0,160,15,0,15,4,6,14,-5,97,5,660,147,145,199,153,169,170,161,148,0,0,0,0,497,0,665,1591,0,0,0,154,0,255,0,0
1339714089912463966,4586,1339714089912463966,mikrokopter,0.0,160,15,0,16,3,5,12,-4,97,22,660,146,145,196,152,169,169,159,154,0,0,0,0,497,0,661,1593,0,0,0,154,0,255,0,0
1339714090011770437,4587,1339714090011770437,mikrokopter,0.0,160,15,0,14,4,6,6,-5,98,8,660,155,145,198,152,138,163,149,162,0,0,0,0,498,0,662,1595,0,0,0,154,0,255,0,0
1339714090132405086,4588,1339714090132405086,mikrokopter,0.0,160,15,0,13,4,5,11,-1,96,-33,660,155,145,199,153,171,158,156,154,0,0,0,0,499,0,670,1597,0,0,0,154,0,255,0,0
1339714090292289250,4589,1339714090292289250,mikrokopter,0.0,160,15,0,14,4,5,12,2,96,-8,652,158,145,195,153,171,166,164,152,0,0,0,0,498,0,669,1599,0,0,0,154,0,255,0,0
1339714090332246584,4590,1339714090332246584,mikrokopter,0.0,160,15,0,12,5,6,26,-4,97,-1,652,152,145,197,152,159,163,152,149,0,0,0,0,499,0,647,1601,0,0,0,154,0,255,0,0
1339714090432473752,4591,1339714090432473752,mikrokopter,0.0,160,15,0,10,5,7,16,-3,97,15,652,144,145,199,152,164,164,155,158,0,0,0,0,500,0,629,1603,0,0,0,154,0,255,0,0
1339714090552118010,4592,1339714090552118010,mikrokopter,0.0,160,15,0,9,4,7,13,2,98,17,652,154,145,195,152,168,170,166,140,0,0,0,0,501,0,641,1605,0,0,0,154,0,255,0,0
1339714090652438486,4593,1339714090652438486,mikrokopter,0.0,160,15,0,9,3,6,13,1,98,1,652,157,145,197,152,166,165,161,155,0,0,0,0,502,0,645,1606,0,0,0,154,0,255,0,0
1339714090772064235,4594,1339714090772064235,mikrokopter,0.0,160,15,0,9,2,8,13,0,98,16,652,145,145,197,152,161,156,150,154,0,0,0,0,502,0,646,1607,0,0,0,154,0,255,0,0
1339714090871596294,4595,1339714090871596294,mikrokopter,0.0,160,15,0,6,2,7,18,3,99,18,652,142,145,199,152,167,153,156,150,0,0,0,0,504,0,646,1609,0,0,0,154,0,255,0,0
1339714090971804327,4596,1339714090971804327,mikrokopter,0.0,160,15,0,4,4,6,14,5,98,2,652,154,145,195,152,155,162,158,147,0,0,0,0,505,0,648,1611,0,0,0,154,0,255,0,0
1339714091072079482,4597,1339714091072079482,mikrokopter,0.0,160,15,0,3,4,6,10,1,96,-6,652,158,145,197,153,165,147,145,143,0,0,0,0,506,0,646,1613,0,0,0,154,0,255,0,0
1339714091172364835,4598,1339714091172364835,mikrokopter,0.0,160,15,0,1,6,6,9,1,96,2,652,152,145,209,153,173,161,159,142,0,0,0,0,507,0,646,1615,0,0,0,154,0,255,0,0
1339714091291865931,4599,1339714091291865931,mikrokopter,0.0,160,15,0,0,10,5,1,4,96,-9,652,158,145,196,153,171,161,161,143,0,0,0,0,508,0,645,1616,0,0,0,154,0,255,0,0
1339714091392300599,4600,1339714091392300599,mikrokopter,0.0,160,15,0,0,11,6,4,2,96,24,652,160,145,207,153,170,164,162,144,0,0,0,0,508,0,644,1618,0,0,0,154,0,255,0,0
1339714091491562736,4601,1339714091491562736,mikrokopter,0.0,160,15,0,0,14,6,7,3,98,34,652,136,145,199,152,164,161,158,155,0,0,0,0,508,0,652,1620,0,0,0,154,0,255,0,0
1339714091591840615,4602,1339714091591840615,mikrokopter,0.0,160,15,0,-1,16,7,14,2,99,11,652,173,145,195,153,168,161,160,146,0,0,0,0,508,0,658,1622,0,0,0,154,0,255,0,0
1339714091692103900,4603,1339714091692103900,mikrokopter,0.0,160,15,0,-3,16,6,13,1,98,-13,652,160,145,197,153,161,159,157,160,0,0,0,0,510,0,652,1624,0,0,0,154,0,255,0,0
1339714091751755590,4604,1339714091751755590,mikrokopter,0.0,160,15,0,-3,16,7,13,4,98,2,652,161,145,206,154,168,158,163,148,0,0,0,0,510,0,646,1625,0,0,0,154,0,255,0,0
1339714091811993862,4605,1339714091811993862,mikrokopter,0.0,160,15,0,-3,15,3,14,-3,99,17,652,150,145,199,154,171,156,150,147,0,0,0,0,510,0,636,1627,0,0,0,154,0,255,0,0
1339714091912487406,4606,1339714091912487406,mikrokopter,0.0,160,15,0,-4,13,6,4,2,100,2,652,143,145,196,154,164,154,156,153,0,0,0,0,511,0,634,1629,0,0,0,154,0,255,0,0
1339714092011822805,4607,1339714092011822805,mikrokopter,0.0,160,15,0,-4,11,6,9,-1,99,-27,652,159,145,197,154,176,156,153,121,0,0,0,0,510,0,634,1630,0,0,0,154,0,255,0,0
1339714092132384422,4608,1339714092132384422,mikrokopter,0.0,160,15,0,-4,10,6,10,2,98,-45,652,159,145,199,154,165,154,157,155,0,0,0,0,511,0,634,1632,0,0,0,154,0,255,0,0
1339714092291536345,4609,1339714092291536345,mikrokopter,0.0,160,15,0,-6,10,6,12,4,98,4,652,148,145,195,153,175,153,159,132,0,0,0,0,512,0,630,1634,0,0,0,154,0,255,0,0
1339714092332514317,4610,1339714092332514317,mikrokopter,0.0,160,15,0,-8,9,6,13,3,100,19,652,148,145,197,153,158,154,154,155,0,0,0,0,513,0,636,1636,0,0,0,154,0,255,0,0
1339714092452024084,4611,1339714092452024084,mikrokopter,0.0,160,15,0,-8,9,5,11,8,101,-11,652,148,145,199,153,177,134,148,141,0,0,0,0,513,0,640,1638,0,0,0,154,0,255,0,0
1339714092552451917,4612,1339714092552451917,mikrokopter,0.0,160,15,0,-6,9,5,12,4,100,-3,652,156,145,196,154,163,151,160,152,0,0,0,0,512,0,637,1639,0,0,0,154,0,255,0,0
1339714092651833766,4613,1339714092651833766,mikrokopter,0.0,160,15,0,-4,9,5,12,5,100,-9,652,160,145,197,155,178,153,166,139,0,0,0,0,511,0,640,1641,0,0,0,154,0,255,0,0
1339714092752602765,4614,1339714092752602765,mikrokopter,0.0,160,15,0,-3,9,5,12,3,100,5,652,151,145,197,155,174,156,168,146,0,0,0,0,510,0,638,1642,0,0,0,154,0,255,0,0
1339714092871788615,4615,1339714092871788615,mikrokopter,0.0,160,15,0,-1,9,6,9,5,100,-19,652,150,145,200,154,175,153,167,149,0,0,0,0,508,0,647,1644,0,0,0,154,0,255,0,0
1339714092972133060,4616,1339714092972133060,mikrokopter,0.0,160,15,0,0,9,7,8,7,101,-22,652,162,145,196,155,180,147,168,133,0,0,0,0,508,0,645,1646,0,0,0,154,0,255,0,0
1339714093071426006,4617,1339714093071426006,mikrokopter,0.0,160,15,0,-1,10,6,11,-1,100,-38,652,156,145,197,155,160,148,151,151,0,0,0,0,508,0,636,1648,0,0,0,154,0,255,0,0
